%YAML 1.1
%TAG !u! tag:unity3d.com,2011:
--- !u!114 &11400000
MonoBehaviour:
  m_ObjectHideFlags: 0
  m_CorrespondingSourceObject: {fileID: 0}
  m_PrefabInstance: {fileID: 0}
  m_PrefabAsset: {fileID: 0}
  m_GameObject: {fileID: 0}
  m_Enabled: 1
  m_EditorHideFlags: 0
  m_Script: {fileID: 11500000, guid: d1dea0b5fe1157349a69ce3912fecad4, type: 3}
  m_Name: Enemy_1
  m_EditorClassIdentifier: 
  EnemyStats:
    _id: 0
    _maxHealth: 3
    _hpAddPerWave: 2
    _speed: 3
    _damagePerWave: 1
    _materialsDropped: 0
    _lootCrateDropRate: 0
    _firstWaveAppearing: 0
    _rangeAttack: 1
  _enemyName: Facy
  _particleAttack: {fileID: 0}
  _particleHurt: {fileID: 0}
  _attackSound: {fileID: 0}
  _hurtSound: {fileID: 0}
  _animatorEnemy: {fileID: 0}
