%YAML 1.1
%TAG !u! tag:unity3d.com,2011:
--- !u!114 &11400000
MonoBehaviour:
  m_ObjectHideFlags: 0
  m_CorrespondingSourceObject: {fileID: 0}
  m_PrefabInstance: {fileID: 0}
  m_PrefabAsset: {fileID: 0}
  m_GameObject: {fileID: 0}
  m_Enabled: 1
  m_EditorHideFlags: 0
  m_Script: {fileID: 11500000, guid: e5378da2d9c84b546aaaf53796d7cdcf, type: 3}
  m_Name: Wave 1
  m_EditorClassIdentifier: 
  _enemiesConfig:
  - EnemyPrefab: {fileID: 1104530920869019027, guid: 39500eff196113341864f115e8ac7123, type: 3}
    RateAppear: 1
  - EnemyPrefab: {fileID: 8845373745087624746, guid: 6d8de5c8893b23c499281158645fcc44, type: 3}
    RateAppear: 10
  _timeWave: 30
  _timeAppearEnemies: 3
  _minEnemies: 2
  _maxEnemies: 5
  _sumRateAppear: 11
